{
  "images" : [
    {
      "idiom" : "universal",
      "filename" : "nav_help_g.png",
      "scale" : "1x"
    },
    {
      "idiom" : "universal",
      "filename" : "nav_help_g-2.png",
      "scale" : "2x"
    },
    {
      "idiom" : "universal",
      "filename" : "nav_help_g-1.png",
      "scale" : "3x"
    }
  ],
  "info" : {
    "version" : 1,
    "author" : "xcode"
  }
}